Data cleaning and merging
…
override_all_clean |> group_by(municipality) |> summarize(mean_per_yes = mean(per_yes, na.rm = TRUE))

# A tibble: 330 × 2
   municipality mean_per_yes
   <chr>               <dbl>
 1 Abington            0.611
 2 Acton               0.591
 3 Acushnet            0.466
 4 Adams               0.511
 5 Agawam              0.713
 6 Alford              0.746
 7 Amesbury            0.487
 8 Amherst             0.547
 9 Andover             0.559
10 Aquinnah            0.534
# ℹ 320 more rows

override_all_clean |> filter(capitalexclusion == 1) |> 
  group_by(municipality) |>
  summarize(count = n(), mean_per_yes = mean(per_yes, na.rm = TRUE))

# A tibble: 162 × 3
   municipality count mean_per_yes
   <chr>        <int>        <dbl>
 1 Abington         3        0.540
 2 Acushnet         1        0.472
 3 Adams            1        0.520
 4 Amherst          1        0.500
 5 Aquinnah         4        0.383
 6 Arlington        1        0.320
 7 Ashburnham      66        0.451
 8 Ashby           54        0.397
 9 Ashland          2        0.465
10 Auburn           1        0.574
# ℹ 152 more rows

override_all_clean |> filter(debtexclusion == 1) |> 
  group_by(municipality) |>
  summarize(count = n(), mean_per_yes = mean(per_yes, na.rm = TRUE))

# A tibble: 315 × 3
   municipality count mean_per_yes
   <chr>        <int>        <dbl>
 1 Abington        25        0.636
 2 Acton           15        0.625
 3 Acushnet         5        0.465
 4 Adams            2        0.638
 5 Agawam           1        0.713
 6 Alford          10        0.755
 7 Amesbury         6        0.576
 8 Amherst          3        0.664
 9 Andover          9        0.603
10 Aquinnah        27        0.666
# ℹ 305 more rows
…
